{
    "propiedades": {
        "property": [
            {
                "photo": "casa.png",
                "id": "43100729",
                "name": "Porter Beer",
                "phone": "(418) 555-1671",
                "price": 211603,
                "coords": "-75.4966 , -25.3976",
                "description": "c4a486427d52 02d0f7a3f25efa7dca8ccb da41b484f04a9394 fc40a5b6444 f439793 46340cfce8f27 d5d01b 731a3d74f5837",
                "type_operation": "renta",
                "type_property": "casa",
                "neighborhood": "Colonia Condesa",
                "address": {
                  "street": "9647 Durgan Ferry",
                  "number_ext": 4,
                  "number_int": 35,
                  "city": "Lake Patriciafort",
                  "state": "North Dakota"                  
                },
                "gallery": {
                    "1": "casa.png",
                    "2": "casa2.png",
                    "3": "casa3.png",
                    "4": "casa.png",
                    "5": "casa2.png",
                    "6": "casa3.png",
                    "7": "casa.png",
                    "8": "casa2.png",
                    "9": "casa3.png",
                    "10":"casa.png"
                }
            },
            {
                "photo": "casa.png",
                "id": "65152304",
                "name": "Violet Shanahan",
                "phone": "(857) 770-8127",
                "price": 460727,
                "coords": "60.9860 , 161.2340",
                "description": "22154f30e980 60e75e5a4e2c6e2d6760 e0df3bd8f4122f66f14 ec640514fa66 bff846b3393 61d666026c76 aad162b3babf75",
                "type_operation": "venta",
                "type_property": "oficina",
                "neighborhood": "Colonia Roma",
                "address": {
                  "street": "8836 Edna Trail",
                  "number_ext": 1,
                  "number_int": 21,
                  "city": "Lelamouth",
                  "state": "Maryland"                  
                },
                "gallery": {
                    "1": "casa.png",
                    "2": "casa2.png",
                    "3": "casa3.png",
                    "4": "casa.png",
                    "5": "casa2.png",
                    "6": "casa3.png",
                    "7": "casa.png",
                    "8": "casa2.png",
                    "9": "casa3.png",
                    "10":"casa.png"
                }
            },
      {
                "photo": "casa.png",
                "id": "62558013",
                "name": "Ottilie Douglas",
                "phone": "(715) 234-6344",
                "price": 376528,
                "coords": "29.4862 , -26.1906",
                "description": "575086af086b 343f9097457e c75c88f2fc6f 21397ad5f337c87e61 c3f1896856 3f77a27040e 23eed3a351307 f7e066f c2955",
                "type_operation": "renta",
                "type_property": "departamento",
                "neighborhood": "Colonia Condesa",
                "address": {
                  "street": "8008 Paucek Glens",
                  "number_ext": 1,
                  "number_int": 36,
                  "city": "East Stefanie",
                  "state": "Massachusetts"                  
                },
                "gallery": {
                    "1": "casa.png",
                    "2": "casa2.png",
                    "3": "casa3.png",
                    "4": "casa.png",
                    "5": "casa2.png",
                    "6": "casa3.png",
                    "7": "casa.png",
                    "8": "casa2.png",
                    "9": "casa3.png",
                    "10":"casa.png"
                }
            },
      {
                "photo": "casa.png",
                "id": "01031674",
                "name": "Emerald Cummings",
                "phone": "(551) 095-7104",
                "price": 403023,
                "coords": "-0.3139 , -92.0106",
                "description": "a168dc1346a 59e00b2a5fe1e5c b291bf2fbe26 b0705474cd72 f461c7f4ec3e2a 714bba26f f20fc39ef20 393b5cb6b52 e9b27",
                "type_operation": "venta",
                "type_property": "casa",
                "neighborhood": "Colonia Roma",
                "address": {
                  "street": "3897 Abernathy Stream",
                  "number_ext": 2,
                  "number_int": 28,
                  "city": "Jastton",
                  "state": "Connecticut"                  
                },
                "gallery": {
                    "1": "casa.png",
                    "2": "casa2.png",
                    "3": "casa3.png",
                    "4": "casa.png",
                    "5": "casa2.png",
                    "6": "casa3.png",
                    "7": "casa.png",
                    "8": "casa2.png",
                    "9": "casa3.png",
                    "10":"casa.png"
                }
            },
            {
                "photo": "casa.png",
                "id": "34966269",
                "name": "Stanton Stroman Jr.",
                "phone": "(657) 728-9715",
                "price": 40656,
                "coords": "-37.3044 , -33.7736",
                "description": "333c96468d67 4e3540cdc575 0c9bb6ca9d8229 5ac593630df7 c2eb866f66e 5aecc22e889 00fd34ec3a cdac87de2a 30ba1560",
                "type_operation": "renta",
                "type_property": "departamento",
                "neighborhood": "Colonia Condesa",
                "address": {
                  "street": "06007 Price Heights",
                  "number_ext": 2,
                  "number_int": 31,
                  "city": "Mooreside",
                  "state": "Colorado"                  
                },
                "gallery": {
                    "1": "casa.png",
                    "2": "casa2.png",
                    "3": "casa3.png",
                    "4": "casa.png",
                    "5": "casa2.png",
                    "6": "casa3.png",
                    "7": "casa.png",
                    "8": "casa2.png",
                    "9": "casa3.png",
                    "10":"casa.png"
                }
            },
            {
                "photo": "casa.png",
                "id": "29722651",
                "name": "Kayleigh Schneider DVM",
                "phone": "(709) 016-8029",
                "price": 140286,
                "coords": "13.1341 , -152.7820",
                "description": "5a0a5a42a20 6a9fb4483cfcd6 44b50292af52 f1dc2baf6c2a7 02af8be424885b9 a46a8f02 435aef80f 4c528b7 8123f 61782b",
                "type_operation": "renta",
                "type_property": "casa",
                "neighborhood": "Colonia Roma",
                "address": {
                  "street": "2582 Jayde Key",
                  "number_ext": 1,
                  "number_int": 45,
                  "city": "Novashire",
                  "state": "Tennessee"                  
                },
                "gallery": {
                    "1": "casa.png",
                    "2": "casa2.png",
                    "3": "casa3.png",
                    "4": "casa.png",
                    "5": "casa2.png",
                    "6": "casa3.png",
                    "7": "casa.png",
                    "8": "casa2.png",
                    "9": "casa3.png",
                    "10":"casa.png"
                }
            },
            {
                "photo": "casa.png",
                "id": "14754820",
                "name": "Humberto Bartell",
                "phone": "(017) 070-2431",
                "price": 437373,
                "coords": "-1.5023 , 74.4701",
                "description": "abfe330f46 bfcfc199a1e85384 ba5df048d08c78  cc288977e1c18ff9d75b2af1d6b890 39820c93 cae1effb21887d7 76fb775",
                "type_operation": "venta",
                "type_property": "oficina",
                "neighborhood": "Colonia Condesa",
                "address": {
                  "street": "8519 Veum Valleys",
                  "number_ext": 1,
                  "number_int": 27,
                  "city": "Alfonzoville",
                  "state": "Idaho"                  
                },
                "gallery": {
                    "1": "casa.png",
                    "2": "casa2.png",
                    "3": "casa3.png",
                    "4": "casa.png",
                    "5": "casa2.png",
                    "6": "casa3.png",
                    "7": "casa.png",
                    "8": "casa2.png",
                    "9": "casa3.png",
                    "10":"casa.png"
                }
            },
            {
                "photo": "casa.png",
                "id": "60120695",
                "name": "Cruz Langworth III",
                "phone": "(581) 985-0254",
                "price": 327979,
                "coords": "10.4832 , 109.4592",
                "description": "05fe141b30b8e 0bac732414f7b13bd1 149cfc7b52b20  fe39830d71ca4 ea97944946538d1d8bb4be3 966098df73b90 95b3521",
                "type_operation": "renta",
                "type_property": "casa",
                "neighborhood": "Colonia Roma",
                "address": {
                  "street": "6684 Jacobi Square",
                  "number_ext": 4,
                  "number_int": 22,
                  "city": "North Dovie",
                  "state": "Oklahoma"                  
                },
                "gallery": {
                    "1": "casa.png",
                    "2": "casa2.png",
                    "3": "casa3.png",
                    "4": "casa.png",
                    "5": "casa2.png",
                    "6": "casa3.png",
                    "7": "casa.png",
                    "8": "casa2.png",
                    "9": "casa3.png",
                    "10":"casa.png"
                }
            },
            {
                "photo": "casa.png",
                "id": "78107302",
                "name": "Emilia Shanahan",
                "phone": "(702) 265-7577",
                "price": 388202,
                "coords": "-52.9269 , 62.0630",
                "description": "3954a4a6b0b 963d175f133dc78a 69cddc684baf533 b1bec8e6533247844 8d07fa4702c 4d8ee545759db 3ade0de1d4 6b734c8",
                "type_operation": "venta",
                "type_property": "departamento",
                "neighborhood": "Colonia Condesa",
                "address": {
                  "street": "4162 Sarai Run",
                  "number_ext": 5,
                  "number_int": 43,
                  "city": "Trantowhaven",
                  "state": "Indiana"                  
                },
                "gallery": {
                    "1": "casa.png",
                    "2": "casa2.png",
                    "3": "casa3.png",
                    "4": "casa.png",
                    "5": "casa2.png",
                    "6": "casa3.png",
                    "7": "casa.png",
                    "8": "casa2.png",
                    "9": "casa3.png",
                    "10":"casa.png"
                }
            },
            {
                "photo": "casa.png",
                "id": "42401419",
                "name": "Dr. David Denesik",
                "phone": "(691) 767-5328",
                "price": 425734,
                "coords": "40.4090 , -159.2516",
                "description": "639efa 8c5ce90d 6f63bd0ab3c 5f3926809f 62d9e8a0 9b06be6dc9 2edb478ec8640 127dc491fca ec8bfa29c5f4 c3a0481684b",
                "type_operation": "venta",
                "type_property": "casa",
                "neighborhood": "Colonia Roma",
                "address": {
                  "street": "311 Bode Shores",
                  "number_ext": 4,
                  "number_int": 49,
                  "city": "Brandyfort",
                  "state": "California"                  
                },
                "gallery": {
                    "1": "casa.png",
                    "2": "casa2.png",
                    "3": "casa3.png",
                    "4": "casa.png",
                    "5": "casa2.png",
                    "6": "casa3.png",
                    "7": "casa.png",
                    "8": "casa2.png",
                    "9": "casa3.png",
                    "10":"casa2.png"
                }
            }
        ]
    }
}
